<svg width="24" height="27" viewBox="0 0 24 27" fill="none" xmlns="http://www.w3.org/2000/svg">
    <path fill-rule="evenodd" clip-rule="evenodd" d="M2 13.3905C2 7.58621 6.48 2.87549 12 2.87549C17.52 2.87549 22 7.58621 22 13.3905V14.8941C22 16.9656 20.47 18.648 18.5 18.648C17.31 18.648 16.19 18.0381 15.54 17.1023C14.64 18.0591 13.38 18.648 12 18.648C9.24 18.648 7 16.2926 7 13.3905C7 10.4883 9.24 8.13299 12 8.13299C14.76 8.13299 17 10.4883 17 13.3905V14.8941C17 15.7248 17.71 16.545 18.5 16.545C19.29 16.545 20 15.7248 20 14.8941V13.3905C20 8.82698 16.34 4.97849 12 4.97849C7.66 4.97849 4 8.82698 4 13.3905C4 17.954 7.66 21.8025 12 21.8025H17V23.9055H12C6.48 23.9055 2 19.1948 2 13.3905ZM9 13.3905C9 15.136 10.34 16.545 12 16.545C13.66 16.545 15 15.136 15 13.3905C15 11.645 13.66 10.236 12 10.236C10.34 10.236 9 11.645 9 13.3905Z" fill="#BF895A"/>
</svg>
