<svg width="218" height="53" viewBox="0 0 218 53" fill="none" xmlns="http://www.w3.org/2000/svg">
    <path d="M9.09 30.24C7.43 30.24 5.98 29.98 4.74 29.46C3.52 28.92 2.57 28.16 1.89 27.18C1.23 26.18 0.9 25.03 0.9 23.73V23.16C0.9 23.06 0.93 22.98 0.99 22.92C1.07 22.84 1.16 22.8 1.26 22.8H5.43C5.53 22.8 5.61 22.84 5.67 22.92C5.75 22.98 5.79 23.06 5.79 23.16V23.52C5.79 24.18 6.12 24.76 6.78 25.26C7.44 25.74 8.33 25.98 9.45 25.98C10.33 25.98 10.98 25.79 11.4 25.41C11.82 25.03 12.03 24.59 12.03 24.09C12.03 23.69 11.9 23.37 11.64 23.13C11.4 22.87 11.07 22.66 10.65 22.5C10.23 22.32 9.58 22.08 8.7 21.78C8.58 21.72 8.46 21.68 8.34 21.66C8.22 21.62 8.11 21.58 8.01 21.54C6.71 21.12 5.58 20.67 4.62 20.19C3.66 19.69 2.84 19.01 2.16 18.15C1.48 17.27 1.14 16.19 1.14 14.91C1.14 13.67 1.46 12.59 2.1 11.67C2.76 10.73 3.67 10.01 4.83 9.51C5.99 9.01 7.3 8.76 8.76 8.76C10.3 8.76 11.68 9.04 12.9 9.6C14.14 10.16 15.11 10.95 15.81 11.97C16.51 12.99 16.86 14.16 16.86 15.48V15.9C16.86 16 16.82 16.09 16.74 16.17C16.68 16.23 16.6 16.26 16.5 16.26H12.33C12.23 16.26 12.14 16.23 12.06 16.17C12 16.09 11.97 16 11.97 15.9V15.69C11.97 14.99 11.66 14.37 11.04 13.83C10.42 13.29 9.59 13.02 8.55 13.02C7.77 13.02 7.16 13.18 6.72 13.5C6.28 13.82 6.06 14.27 6.06 14.85C6.06 15.29 6.2 15.66 6.48 15.96C6.76 16.24 7.19 16.51 7.77 16.77C8.37 17.01 9.28 17.33 10.5 17.73C11.9 18.21 12.99 18.63 13.77 18.99C14.55 19.35 15.28 19.94 15.96 20.76C16.66 21.56 17.01 22.62 17.01 23.94C17.01 25.24 16.68 26.36 16.02 27.3C15.36 28.24 14.43 28.97 13.23 29.49C12.05 29.99 10.67 30.24 9.09 30.24ZM28.369 9C29.729 9 30.929 9.28 31.969 9.84C33.029 10.4 33.839 11.19 34.399 12.21C34.979 13.21 35.269 14.37 35.269 15.69C35.269 16.99 34.969 18.14 34.369 19.14C33.789 20.14 32.959 20.91 31.879 21.45C30.799 21.99 29.549 22.26 28.129 22.26H24.469C24.369 22.26 24.319 22.31 24.319 22.41V29.64C24.319 29.74 24.279 29.83 24.199 29.91C24.139 29.97 24.059 30 23.959 30H19.699C19.599 30 19.509 29.97 19.429 29.91C19.369 29.83 19.339 29.74 19.339 29.64V9.36C19.339 9.26 19.369 9.18 19.429 9.12C19.509 9.04 19.599 9 19.699 9H28.369ZM27.559 18.3C28.379 18.3 29.039 18.07 29.539 17.61C30.059 17.15 30.319 16.55 30.319 15.81C30.319 15.05 30.059 14.44 29.539 13.98C29.039 13.5 28.379 13.26 27.559 13.26H24.469C24.369 13.26 24.319 13.31 24.319 13.41V18.15C24.319 18.25 24.369 18.3 24.469 18.3H27.559ZM52.2687 12.9C52.2687 13 52.2287 13.09 52.1487 13.17C52.0887 13.23 52.0087 13.26 51.9087 13.26H42.4887C42.3887 13.26 42.3387 13.31 42.3387 13.41V17.1C42.3387 17.2 42.3887 17.25 42.4887 17.25H48.5187C48.6187 17.25 48.6987 17.29 48.7587 17.37C48.8387 17.43 48.8787 17.51 48.8787 17.61V21.12C48.8787 21.22 48.8387 21.31 48.7587 21.39C48.6987 21.45 48.6187 21.48 48.5187 21.48H42.4887C42.3887 21.48 42.3387 21.53 42.3387 21.63V25.59C42.3387 25.69 42.3887 25.74 42.4887 25.74H51.9087C52.0087 25.74 52.0887 25.78 52.1487 25.86C52.2287 25.92 52.2687 26 52.2687 26.1V29.64C52.2687 29.74 52.2287 29.83 52.1487 29.91C52.0887 29.97 52.0087 30 51.9087 30H37.7187C37.6187 30 37.5287 29.97 37.4487 29.91C37.3887 29.83 37.3587 29.74 37.3587 29.64V9.36C37.3587 9.26 37.3887 9.18 37.4487 9.12C37.5287 9.04 37.6187 9 37.7187 9H51.9087C52.0087 9 52.0887 9.04 52.1487 9.12C52.2287 9.18 52.2687 9.26 52.2687 9.36V12.9ZM69.5831 12.9C69.5831 13 69.5431 13.09 69.4631 13.17C69.4031 13.23 69.3231 13.26 69.2231 13.26H59.8031C59.7031 13.26 59.6531 13.31 59.6531 13.41V17.1C59.6531 17.2 59.7031 17.25 59.8031 17.25H65.8331C65.9331 17.25 66.0131 17.29 66.0731 17.37C66.1531 17.43 66.1931 17.51 66.1931 17.61V21.12C66.1931 21.22 66.1531 21.31 66.0731 21.39C66.0131 21.45 65.9331 21.48 65.8331 21.48H59.8031C59.7031 21.48 59.6531 21.53 59.6531 21.63V25.59C59.6531 25.69 59.7031 25.74 59.8031 25.74H69.2231C69.3231 25.74 69.4031 25.78 69.4631 25.86C69.5431 25.92 69.5831 26 69.5831 26.1V29.64C69.5831 29.74 69.5431 29.83 69.4631 29.91C69.4031 29.97 69.3231 30 69.2231 30H55.0331C54.9331 30 54.8431 29.97 54.7631 29.91C54.7031 29.83 54.6731 29.74 54.6731 29.64V9.36C54.6731 9.26 54.7031 9.18 54.7631 9.12C54.8431 9.04 54.9331 9 55.0331 9H69.2231C69.3231 9 69.4031 9.04 69.4631 9.12C69.5431 9.18 69.5831 9.26 69.5831 9.36V12.9ZM72.3476 30C72.2476 30 72.1576 29.97 72.0776 29.91C72.0176 29.83 71.9876 29.74 71.9876 29.64V9.36C71.9876 9.26 72.0176 9.18 72.0776 9.12C72.1576 9.04 72.2476 9 72.3476 9H79.9976C81.5576 9 82.9376 9.27 84.1376 9.81C85.3376 10.35 86.2676 11.12 86.9276 12.12C87.5876 13.12 87.9176 14.27 87.9176 15.57V23.43C87.9176 24.73 87.5876 25.88 86.9276 26.88C86.2676 27.88 85.3376 28.65 84.1376 29.19C82.9376 29.73 81.5576 30 79.9976 30H72.3476ZM76.9676 25.59C76.9676 25.69 77.0176 25.74 77.1176 25.74H80.2076C81.0076 25.74 81.6576 25.46 82.1576 24.9C82.6576 24.32 82.9176 23.55 82.9376 22.59V16.41C82.9376 15.45 82.6776 14.69 82.1576 14.13C81.6576 13.55 80.9976 13.26 80.1776 13.26H77.1176C77.0176 13.26 76.9676 13.31 76.9676 13.41V25.59ZM105.478 9C106.838 9 108.038 9.28 109.078 9.84C110.138 10.4 110.948 11.19 111.508 12.21C112.088 13.21 112.378 14.37 112.378 15.69C112.378 16.99 112.078 18.14 111.478 19.14C110.898 20.14 110.068 20.91 108.988 21.45C107.908 21.99 106.658 22.26 105.238 22.26H101.578C101.478 22.26 101.428 22.31 101.428 22.41V29.64C101.428 29.74 101.388 29.83 101.308 29.91C101.248 29.97 101.168 30 101.068 30H96.8084C96.7084 30 96.6184 29.97 96.5384 29.91C96.4784 29.83 96.4484 29.74 96.4484 29.64V9.36C96.4484 9.26 96.4784 9.18 96.5384 9.12C96.6184 9.04 96.7084 9 96.8084 9H105.478ZM104.668 18.3C105.488 18.3 106.148 18.07 106.648 17.61C107.168 17.15 107.428 16.55 107.428 15.81C107.428 15.05 107.168 14.44 106.648 13.98C106.148 13.5 105.488 13.26 104.668 13.26H101.578C101.478 13.26 101.428 13.31 101.428 13.41V18.15C101.428 18.25 101.478 18.3 101.578 18.3H104.668ZM126.127 30C125.907 30 125.767 29.9 125.707 29.7L124.927 27.03C124.887 26.95 124.837 26.91 124.777 26.91H117.937C117.877 26.91 117.827 26.95 117.787 27.03L117.007 29.7C116.947 29.9 116.807 30 116.587 30H111.997C111.877 30 111.787 29.97 111.727 29.91C111.667 29.83 111.657 29.72 111.697 29.58L118.117 9.3C118.177 9.1 118.307 9 118.507 9H124.177C124.377 9 124.507 9.1 124.567 9.3L131.017 29.58C131.037 29.62 131.047 29.67 131.047 29.73C131.047 29.91 130.937 30 130.717 30H126.127ZM118.987 22.89C118.967 23.01 119.007 23.07 119.107 23.07H123.577C123.697 23.07 123.737 23.01 123.697 22.89L121.417 15.18C121.397 15.1 121.367 15.07 121.327 15.09C121.287 15.09 121.257 15.12 121.237 15.18L118.987 22.89ZM144.497 30C144.297 30 144.157 29.91 144.077 29.73L140.537 21.75C140.497 21.67 140.437 21.63 140.357 21.63H138.377C138.277 21.63 138.227 21.68 138.227 21.78V29.64C138.227 29.74 138.187 29.83 138.107 29.91C138.047 29.97 137.967 30 137.867 30H133.607C133.507 30 133.417 29.97 133.337 29.91C133.277 29.83 133.247 29.74 133.247 29.64V9.36C133.247 9.26 133.277 9.18 133.337 9.12C133.417 9.04 133.507 9 133.607 9H142.517C143.837 9 144.997 9.27 145.997 9.81C146.997 10.35 147.767 11.12 148.307 12.12C148.867 13.1 149.147 14.23 149.147 15.51C149.147 16.85 148.817 18.01 148.157 18.99C147.497 19.97 146.577 20.68 145.397 21.12C145.297 21.16 145.267 21.23 145.307 21.33L149.267 29.58C149.307 29.66 149.327 29.72 149.327 29.76C149.327 29.92 149.217 30 148.997 30H144.497ZM138.377 13.26C138.277 13.26 138.227 13.31 138.227 13.41V17.67C138.227 17.77 138.277 17.82 138.377 17.82H141.707C142.447 17.82 143.047 17.62 143.507 17.22C143.967 16.8 144.197 16.25 144.197 15.57C144.197 14.87 143.967 14.31 143.507 13.89C143.047 13.47 142.447 13.26 141.707 13.26H138.377ZM152.035 30C151.935 30 151.845 29.97 151.765 29.91C151.705 29.83 151.675 29.74 151.675 29.64V9.36C151.675 9.26 151.705 9.18 151.765 9.12C151.845 9.04 151.935 9 152.035 9H156.295C156.395 9 156.475 9.04 156.535 9.12C156.615 9.18 156.655 9.26 156.655 9.36V17.16C156.655 17.22 156.675 17.26 156.715 17.28C156.755 17.28 156.795 17.26 156.835 17.22L162.895 9.21C163.015 9.07 163.155 9 163.315 9H168.175C168.375 9 168.475 9.07 168.475 9.21C168.475 9.27 168.445 9.35 168.385 9.45L161.905 18.12C161.865 18.2 161.855 18.27 161.875 18.33L168.655 29.58C168.695 29.7 168.715 29.77 168.715 29.79C168.715 29.93 168.615 30 168.415 30H163.645C163.425 30 163.275 29.92 163.195 29.76L158.485 21.75C158.425 21.63 158.355 21.63 158.275 21.75L156.715 23.88C156.675 23.96 156.655 24.02 156.655 24.06V29.64C156.655 29.74 156.615 29.83 156.535 29.91C156.475 29.97 156.395 30 156.295 30H152.035ZM170.961 30C170.861 30 170.771 29.97 170.691 29.91C170.631 29.83 170.601 29.74 170.601 29.64V9.36C170.601 9.26 170.631 9.18 170.691 9.12C170.771 9.04 170.861 9 170.961 9H175.221C175.321 9 175.401 9.04 175.461 9.12C175.541 9.18 175.581 9.26 175.581 9.36V29.64C175.581 29.74 175.541 29.83 175.461 29.91C175.401 29.97 175.321 30 175.221 30H170.961ZM193.45 12.9C193.45 13 193.41 13.09 193.33 13.17C193.27 13.23 193.19 13.26 193.09 13.26H183.67C183.57 13.26 183.52 13.31 183.52 13.41V17.1C183.52 17.2 183.57 17.25 183.67 17.25H189.7C189.8 17.25 189.88 17.29 189.94 17.37C190.02 17.43 190.06 17.51 190.06 17.61V21.12C190.06 21.22 190.02 21.31 189.94 21.39C189.88 21.45 189.8 21.48 189.7 21.48H183.67C183.57 21.48 183.52 21.53 183.52 21.63V25.59C183.52 25.69 183.57 25.74 183.67 25.74H193.09C193.19 25.74 193.27 25.78 193.33 25.86C193.41 25.92 193.45 26 193.45 26.1V29.64C193.45 29.74 193.41 29.83 193.33 29.91C193.27 29.97 193.19 30 193.09 30H178.9C178.8 30 178.71 29.97 178.63 29.91C178.57 29.83 178.54 29.74 178.54 29.64V9.36C178.54 9.26 178.57 9.18 178.63 9.12C178.71 9.04 178.8 9 178.9 9H193.09C193.19 9 193.27 9.04 193.33 9.12C193.41 9.18 193.45 9.26 193.45 9.36V12.9ZM211.035 9C211.135 9 211.215 9.04 211.275 9.12C211.355 9.18 211.395 9.26 211.395 9.36V12.93C211.395 13.03 211.355 13.12 211.275 13.2C211.215 13.26 211.135 13.29 211.035 13.29H205.785C205.685 13.29 205.635 13.34 205.635 13.44V29.64C205.635 29.74 205.595 29.83 205.515 29.91C205.455 29.97 205.375 30 205.275 30H201.015C200.915 30 200.825 29.97 200.745 29.91C200.685 29.83 200.655 29.74 200.655 29.64V13.44C200.655 13.34 200.605 13.29 200.505 13.29H195.435C195.335 13.29 195.245 13.26 195.165 13.2C195.105 13.12 195.075 13.03 195.075 12.93V9.36C195.075 9.26 195.105 9.18 195.165 9.12C195.245 9.04 195.335 9 195.435 9H211.035Z" fill="#592E25"/>
    <path d="M8.912 37.912C8.96533 37.8373 9.02933 37.8 9.104 37.8H9.648C9.75467 37.8 9.808 37.8533 9.808 37.96V48.84C9.808 48.9467 9.75467 49 9.648 49H9.12C9.01333 49 8.96 48.9467 8.96 48.84V39.448C8.96 39.416 8.94933 39.4 8.928 39.4C8.90667 39.3893 8.89067 39.4 8.88 39.432L6.064 43.784C6.01067 43.8587 5.94667 43.896 5.872 43.896H5.6C5.52533 43.896 5.46133 43.8587 5.408 43.784L2.56 39.448C2.54933 39.416 2.53333 39.4053 2.512 39.416C2.49067 39.4267 2.48 39.448 2.48 39.48V48.84C2.48 48.9467 2.42667 49 2.32 49H1.792C1.68533 49 1.632 48.9467 1.632 48.84V37.96C1.632 37.8533 1.68533 37.8 1.792 37.8H2.352C2.42667 37.8 2.49067 37.8373 2.544 37.912L5.68 42.712C5.69067 42.7227 5.70667 42.728 5.728 42.728C5.74933 42.728 5.76533 42.7227 5.776 42.712L8.912 37.912ZM14.8451 49C14.7385 49 14.6851 48.9467 14.6851 48.84V37.96C14.6851 37.8533 14.7385 37.8 14.8451 37.8H15.3731C15.4798 37.8 15.5331 37.8533 15.5331 37.96V48.84C15.5331 48.9467 15.4798 49 15.3731 49H14.8451ZM23.7061 49.144C22.9808 49.144 22.3408 49 21.7861 48.712C21.2315 48.424 20.7995 48.0187 20.4901 47.496C20.1915 46.9627 20.0421 46.3547 20.0421 45.672V41.112C20.0421 40.4293 20.1915 39.832 20.4901 39.32C20.7995 38.7973 21.2315 38.392 21.7861 38.104C22.3408 37.816 22.9808 37.672 23.7061 37.672C24.4208 37.672 25.0555 37.816 25.6101 38.104C26.1648 38.3813 26.5915 38.776 26.8901 39.288C27.1995 39.8 27.3541 40.392 27.3541 41.064V41.08C27.3541 41.1333 27.3381 41.176 27.3061 41.208C27.2741 41.24 27.2368 41.256 27.1941 41.256L26.6661 41.288C26.5595 41.288 26.5061 41.2347 26.5061 41.128V41.08C26.5061 40.28 26.2501 39.64 25.7381 39.16C25.2261 38.6693 24.5488 38.424 23.7061 38.424C22.8528 38.424 22.1701 38.6693 21.6581 39.16C21.1461 39.64 20.8901 40.28 20.8901 41.08V45.72C20.8901 46.52 21.1461 47.1653 21.6581 47.656C22.1808 48.1467 22.8635 48.392 23.7061 48.392C24.5488 48.392 25.2261 48.1467 25.7381 47.656C26.2501 47.1653 26.5061 46.52 26.5061 45.72V45.688C26.5061 45.592 26.5595 45.544 26.6661 45.544L27.1941 45.576C27.3008 45.576 27.3541 45.624 27.3541 45.72C27.3541 46.392 27.1995 46.9893 26.8901 47.512C26.5915 48.024 26.1648 48.424 25.6101 48.712C25.0555 49 24.4208 49.144 23.7061 49.144ZM38.2089 37.96C38.2089 37.8533 38.2622 37.8 38.3689 37.8H38.8969C39.0035 37.8 39.0569 37.8533 39.0569 37.96V48.84C39.0569 48.9467 39.0035 49 38.8969 49H38.3689C38.2622 49 38.2089 48.9467 38.2089 48.84V43.816C38.2089 43.7733 38.1875 43.752 38.1449 43.752H32.6409C32.5982 43.752 32.5769 43.7733 32.5769 43.816V48.84C32.5769 48.9467 32.5235 49 32.4169 49H31.8889C31.7822 49 31.7289 48.9467 31.7289 48.84V37.96C31.7289 37.8533 31.7822 37.8 31.8889 37.8H32.4169C32.5235 37.8 32.5769 37.8533 32.5769 37.96V42.936C32.5769 42.9787 32.5982 43 32.6409 43H38.1449C38.1875 43 38.2089 42.9787 38.2089 42.936V37.96ZM50.56 49C50.464 49 50.4 48.9573 50.368 48.872L49.68 46.744C49.6693 46.712 49.648 46.696 49.616 46.696H44.624C44.592 46.696 44.5707 46.712 44.56 46.744L43.888 48.872C43.856 48.9573 43.792 49 43.696 49H43.136C43.0187 49 42.976 48.9413 43.008 48.824L46.56 37.928C46.592 37.8427 46.656 37.8 46.752 37.8H47.472C47.568 37.8 47.632 37.8427 47.664 37.928L51.232 48.824L51.248 48.888C51.248 48.9627 51.2 49 51.104 49H50.56ZM44.816 45.912C44.8053 45.9333 44.8053 45.9547 44.816 45.976C44.8373 45.9867 44.8587 45.992 44.88 45.992H49.36C49.3813 45.992 49.3973 45.9867 49.408 45.976C49.4293 45.9547 49.4347 45.9333 49.424 45.912L47.168 38.952C47.1573 38.9307 47.1413 38.92 47.12 38.92C47.0987 38.92 47.0827 38.9307 47.072 38.952L44.816 45.912ZM56.2375 48.184C56.2375 48.2267 56.2588 48.248 56.3015 48.248H62.0455C62.1522 48.248 62.2055 48.3013 62.2055 48.408V48.84C62.2055 48.9467 62.1522 49 62.0455 49H55.5495C55.4428 49 55.3895 48.9467 55.3895 48.84V44.872C55.3895 44.8507 55.3788 44.8347 55.3575 44.824C55.3468 44.8133 55.3308 44.8187 55.3095 44.84L53.5815 46.088C53.5602 46.1093 53.5282 46.12 53.4855 46.12C53.4322 46.12 53.3895 46.0987 53.3575 46.056L53.1175 45.768C53.0962 45.7467 53.0855 45.7147 53.0855 45.672C53.0855 45.6187 53.1068 45.576 53.1495 45.544L55.3575 43.944C55.3788 43.9227 55.3895 43.896 55.3895 43.864V37.96C55.3895 37.8533 55.4428 37.8 55.5495 37.8H56.0775C56.1842 37.8 56.2375 37.8533 56.2375 37.96V43.192C56.2375 43.2133 56.2428 43.2293 56.2535 43.24C56.2748 43.2507 56.2962 43.2453 56.3175 43.224L60.0615 40.488C60.0828 40.4667 60.1148 40.456 60.1575 40.456C60.2108 40.456 60.2535 40.4773 60.2855 40.52L60.5255 40.824C60.5468 40.856 60.5575 40.8933 60.5575 40.936C60.5575 40.9787 60.5362 41.016 60.4935 41.048L56.2695 44.12C56.2482 44.1413 56.2375 44.168 56.2375 44.2V48.184ZM71.0232 49C70.9166 49 70.8632 48.9467 70.8632 48.84V37.96C70.8632 37.8533 70.9166 37.8 71.0232 37.8H71.5512C71.6579 37.8 71.7112 37.8533 71.7112 37.96V43.608C71.7112 43.6293 71.7219 43.6453 71.7432 43.656C71.7646 43.6667 71.7806 43.6613 71.7912 43.64L77.1992 37.88C77.2526 37.8267 77.3166 37.8 77.3912 37.8H77.9832C78.0472 37.8 78.0899 37.8213 78.1112 37.864C78.1326 37.896 78.1219 37.9387 78.0792 37.992L74.0792 42.392C74.0579 42.4133 74.0579 42.4453 74.0792 42.488L78.4472 48.808L78.4792 48.888C78.4792 48.9627 78.4312 49 78.3352 49H77.7112C77.6259 49 77.5619 48.968 77.5192 48.904L73.5032 43.096C73.4926 43.0747 73.4766 43.064 73.4552 43.064C73.4339 43.064 73.4179 43.0693 73.4072 43.08L71.7432 44.792C71.7219 44.8133 71.7112 44.84 71.7112 44.872V48.84C71.7112 48.9467 71.6579 49 71.5512 49H71.0232ZM88.822 49C88.726 49 88.662 48.9627 88.63 48.888L86.182 43.8C86.1713 43.768 86.15 43.752 86.118 43.752H83.094C83.0513 43.752 83.03 43.7733 83.03 43.816V48.84C83.03 48.9467 82.9767 49 82.87 49H82.342C82.2353 49 82.182 48.9467 82.182 48.84V37.96C82.182 37.8533 82.2353 37.8 82.342 37.8H86.374C87.27 37.8 87.99 38.0773 88.534 38.632C89.0887 39.1867 89.366 39.912 89.366 40.808C89.366 41.5653 89.158 42.2053 88.742 42.728C88.326 43.24 87.766 43.56 87.062 43.688C87.0087 43.7093 86.9927 43.736 87.014 43.768L89.462 48.808C89.4727 48.8293 89.478 48.856 89.478 48.888C89.478 48.9627 89.4353 49 89.35 49H88.822ZM83.094 38.552C83.0513 38.552 83.03 38.5733 83.03 38.616V42.984C83.03 43.0267 83.0513 43.048 83.094 43.048H86.294C86.9553 43.048 87.4887 42.84 87.894 42.424C88.31 42.008 88.518 41.4693 88.518 40.808C88.518 40.136 88.31 39.592 87.894 39.176C87.4887 38.76 86.9553 38.552 86.294 38.552H83.094ZM97.1629 49.128C96.4269 49.128 95.7762 48.984 95.2109 48.696C94.6562 48.3973 94.2242 47.9813 93.9149 47.448C93.6055 46.9147 93.4509 46.3013 93.4509 45.608V37.96C93.4509 37.8533 93.5042 37.8 93.6109 37.8H94.1389C94.2455 37.8 94.2989 37.8533 94.2989 37.96V45.64C94.2989 46.4613 94.5602 47.1227 95.0829 47.624C95.6162 48.1253 96.3095 48.376 97.1629 48.376C98.0269 48.376 98.7202 48.1253 99.2429 47.624C99.7655 47.1227 100.027 46.4613 100.027 45.64V37.96C100.027 37.8533 100.08 37.8 100.187 37.8H100.715C100.822 37.8 100.875 37.8533 100.875 37.96V45.608C100.875 46.3013 100.72 46.9147 100.411 47.448C100.102 47.9813 99.6642 48.3973 99.0989 48.696C98.5442 48.984 97.8989 49.128 97.1629 49.128ZM104.928 49C104.821 49 104.768 48.9467 104.768 48.84V48.328C104.768 48.2747 104.789 48.2053 104.832 48.12L110.864 38.632C110.875 38.6213 110.875 38.6053 110.864 38.584C110.853 38.5627 110.837 38.552 110.816 38.552H104.928C104.821 38.552 104.768 38.4987 104.768 38.392V37.96C104.768 37.8533 104.821 37.8 104.928 37.8H111.68C111.787 37.8 111.84 37.8533 111.84 37.96V38.472C111.84 38.5253 111.819 38.5947 111.776 38.68L105.76 48.168C105.749 48.1787 105.749 48.1947 105.76 48.216C105.771 48.2373 105.787 48.248 105.808 48.248H111.68C111.787 48.248 111.84 48.3013 111.84 48.408V48.84C111.84 48.9467 111.787 49 111.68 49H104.928ZM108.224 36.184C107.989 36.184 107.797 36.1093 107.648 35.96C107.499 35.8107 107.424 35.6187 107.424 35.384C107.424 35.1493 107.499 34.9573 107.648 34.808C107.797 34.6587 107.989 34.584 108.224 34.584C108.459 34.584 108.651 34.6587 108.8 34.808C108.949 34.9573 109.024 35.1493 109.024 35.384C109.024 35.6187 108.949 35.8107 108.8 35.96C108.651 36.1093 108.459 36.184 108.224 36.184ZM123.262 37.912C123.315 37.8373 123.379 37.8 123.454 37.8H123.998C124.105 37.8 124.158 37.8533 124.158 37.96V48.84C124.158 48.9467 124.105 49 123.998 49H123.47C123.363 49 123.31 48.9467 123.31 48.84V39.448C123.31 39.416 123.299 39.4 123.278 39.4C123.257 39.3893 123.241 39.4 123.23 39.432L120.414 43.784C120.361 43.8587 120.297 43.896 120.222 43.896H119.95C119.875 43.896 119.811 43.8587 119.758 43.784L116.91 39.448C116.899 39.416 116.883 39.4053 116.862 39.416C116.841 39.4267 116.83 39.448 116.83 39.48V48.84C116.83 48.9467 116.777 49 116.67 49H116.142C116.035 49 115.982 48.9467 115.982 48.84V37.96C115.982 37.8533 116.035 37.8 116.142 37.8H116.702C116.777 37.8 116.841 37.8373 116.894 37.912L120.03 42.712C120.041 42.7227 120.057 42.728 120.078 42.728C120.099 42.728 120.115 42.7227 120.126 42.712L123.262 37.912ZM135.563 49C135.467 49 135.403 48.9573 135.371 48.872L134.683 46.744C134.672 46.712 134.651 46.696 134.619 46.696H129.627C129.595 46.696 129.574 46.712 129.563 46.744L128.891 48.872C128.859 48.9573 128.795 49 128.699 49H128.139C128.022 49 127.979 48.9413 128.011 48.824L131.563 37.928C131.595 37.8427 131.659 37.8 131.755 37.8H132.475C132.571 37.8 132.635 37.8427 132.667 37.928L136.235 48.824L136.251 48.888C136.251 48.9627 136.203 49 136.107 49H135.563ZM129.819 45.912C129.808 45.9333 129.808 45.9547 129.819 45.976C129.84 45.9867 129.862 45.992 129.883 45.992H134.363C134.384 45.992 134.4 45.9867 134.411 45.976C134.432 45.9547 134.438 45.9333 134.427 45.912L132.171 38.952C132.16 38.9307 132.144 38.92 132.123 38.92C132.102 38.92 132.086 38.9307 132.075 38.952L129.819 45.912ZM146.825 37.96C146.825 37.8533 146.878 37.8 146.985 37.8H147.513C147.619 37.8 147.673 37.8533 147.673 37.96V48.84C147.673 48.9467 147.619 49 147.513 49H146.985C146.91 49 146.846 48.9627 146.793 48.888L141.001 39.496C140.99 39.464 140.974 39.4533 140.953 39.464C140.931 39.464 140.921 39.48 140.921 39.512V48.84C140.921 48.9467 140.867 49 140.761 49H140.233C140.126 49 140.073 48.9467 140.073 48.84V37.96C140.073 37.8533 140.126 37.8 140.233 37.8H140.777C140.851 37.8 140.915 37.8373 140.969 37.912L146.745 47.304C146.755 47.336 146.771 47.352 146.793 47.352C146.814 47.3413 146.825 47.32 146.825 47.288V37.96ZM155.86 49.128C155.124 49.128 154.473 48.9787 153.908 48.68C153.353 48.3707 152.921 47.944 152.612 47.4C152.313 46.8453 152.164 46.2107 152.164 45.496V41.304C152.164 40.5893 152.313 39.96 152.612 39.416C152.921 38.8613 153.353 38.4347 153.908 38.136C154.473 37.8267 155.124 37.672 155.86 37.672C156.596 37.672 157.247 37.8267 157.812 38.136C158.377 38.4347 158.815 38.8613 159.124 39.416C159.433 39.96 159.588 40.5893 159.588 41.304V45.496C159.588 46.2107 159.433 46.8453 159.124 47.4C158.815 47.944 158.377 48.3707 157.812 48.68C157.247 48.9787 156.596 49.128 155.86 49.128ZM155.86 48.392C156.724 48.392 157.417 48.1307 157.94 47.608C158.473 47.0853 158.74 46.392 158.74 45.528V41.288C158.74 40.4347 158.473 39.7467 157.94 39.224C157.417 38.6907 156.724 38.424 155.86 38.424C155.007 38.424 154.319 38.6907 153.796 39.224C153.273 39.7467 153.012 40.4347 153.012 41.288V45.528C153.012 46.392 153.273 47.0853 153.796 47.608C154.319 48.1307 155.007 48.392 155.86 48.392ZM166.135 49C166.05 49 165.991 48.9573 165.959 48.872L162.839 37.976L162.823 37.928C162.823 37.8427 162.876 37.8 162.983 37.8H163.527C163.612 37.8 163.671 37.8427 163.703 37.928L166.359 47.256C166.37 47.2773 166.38 47.288 166.391 47.288C166.412 47.288 166.428 47.2773 166.439 47.256L168.903 37.944C168.924 37.848 168.983 37.8 169.079 37.8H169.639C169.735 37.8 169.794 37.848 169.815 37.944L172.359 47.256C172.37 47.2773 172.38 47.288 172.391 47.288C172.412 47.288 172.428 47.2773 172.439 47.256L175.127 37.928C175.159 37.8427 175.218 37.8 175.303 37.8H175.815C175.868 37.8 175.906 37.816 175.927 37.848C175.959 37.88 175.97 37.9227 175.959 37.976L172.839 48.872C172.807 48.9573 172.748 49 172.663 49H172.103C172.007 49 171.948 48.952 171.927 48.856L169.415 39.368C169.404 39.3467 169.388 39.336 169.367 39.336C169.356 39.336 169.346 39.3467 169.335 39.368L166.839 48.856C166.818 48.952 166.759 49 166.663 49H166.135ZM182.664 49.128C181.49 49.128 180.562 48.8667 179.88 48.344C179.197 47.8107 178.856 47.1013 178.856 46.216V45.688C178.856 45.5813 178.909 45.528 179.016 45.528H179.512C179.618 45.528 179.672 45.5813 179.672 45.688V46.168C179.672 46.8293 179.944 47.3627 180.488 47.768C181.032 48.1733 181.778 48.376 182.728 48.376C183.613 48.376 184.29 48.1947 184.76 47.832C185.229 47.4587 185.464 46.9467 185.464 46.296C185.464 45.9013 185.357 45.56 185.144 45.272C184.941 44.9733 184.621 44.696 184.184 44.44C183.757 44.184 183.149 43.8907 182.36 43.56C181.528 43.208 180.898 42.9147 180.472 42.68C180.056 42.4453 179.72 42.152 179.464 41.8C179.208 41.4373 179.08 40.9733 179.08 40.408C179.08 39.5333 179.378 38.8613 179.976 38.392C180.584 37.912 181.421 37.672 182.488 37.672C183.65 37.672 184.562 37.9387 185.224 38.472C185.885 39.0053 186.216 39.72 186.216 40.616V40.984C186.216 41.0907 186.162 41.144 186.056 41.144H185.528C185.421 41.144 185.368 41.0907 185.368 40.984V40.664C185.368 39.992 185.112 39.4533 184.6 39.048C184.088 38.632 183.368 38.424 182.44 38.424C181.629 38.424 181.005 38.5947 180.568 38.936C180.13 39.2667 179.912 39.7467 179.912 40.376C179.912 40.8027 180.013 41.1493 180.216 41.416C180.418 41.6827 180.706 41.9173 181.08 42.12C181.464 42.312 182.05 42.568 182.84 42.888C183.629 43.208 184.264 43.5173 184.744 43.816C185.234 44.104 185.618 44.4453 185.896 44.84C186.173 45.2347 186.312 45.7093 186.312 46.264C186.312 47.128 185.992 47.8213 185.352 48.344C184.712 48.8667 183.816 49.128 182.664 49.128ZM190.648 49C190.542 49 190.488 48.9467 190.488 48.84V37.96C190.488 37.8533 190.542 37.8 190.648 37.8H191.176C191.283 37.8 191.336 37.8533 191.336 37.96V43.608C191.336 43.6293 191.347 43.6453 191.368 43.656C191.39 43.6667 191.406 43.6613 191.416 43.64L196.824 37.88C196.878 37.8267 196.942 37.8 197.016 37.8H197.608C197.672 37.8 197.715 37.8213 197.736 37.864C197.758 37.896 197.747 37.9387 197.704 37.992L193.704 42.392C193.683 42.4133 193.683 42.4453 193.704 42.488L198.072 48.808L198.104 48.888C198.104 48.9627 198.056 49 197.96 49H197.336C197.251 49 197.187 48.968 197.144 48.904L193.128 43.096C193.118 43.0747 193.102 43.064 193.08 43.064C193.059 43.064 193.043 43.0693 193.032 43.08L191.368 44.792C191.347 44.8133 191.336 44.84 191.336 44.872V48.84C191.336 48.9467 191.283 49 191.176 49H190.648ZM201.967 49C201.86 49 201.807 48.9467 201.807 48.84V37.96C201.807 37.8533 201.86 37.8 201.967 37.8H202.495C202.602 37.8 202.655 37.8533 202.655 37.96V48.84C202.655 48.9467 202.602 49 202.495 49H201.967Z" fill="#BF9B85"/>
</svg>
