<svg width="16" height="18" viewBox="0 0 16 18" fill="none" xmlns="http://www.w3.org/2000/svg">
<path fill-rule="evenodd" clip-rule="evenodd" d="M8.00004 1.81787C5.42004 1.81787 3.33337 4.012 3.33337 6.72487C3.33337 10.4051 8.00004 15.8379 8.00004 15.8379C8.00004 15.8379 12.6667 10.4051 12.6667 6.72487C12.6667 4.012 10.58 1.81787 8.00004 1.81787ZM4.66671 6.72487C4.66671 4.79011 6.16004 3.21987 8.00004 3.21987C9.84004 3.21987 11.3334 4.79011 11.3334 6.72487C11.3334 8.74375 9.41338 11.7651 8.00004 13.6508C6.61337 11.7791 4.66671 8.72272 4.66671 6.72487ZM6.33338 6.72487C6.33338 5.75699 7.07957 4.97237 8.00004 4.97237C8.59549 4.97237 9.1457 5.3064 9.44342 5.84862C9.74114 6.39085 9.74114 7.0589 9.44342 7.60112C9.1457 8.14335 8.59549 8.47737 8.00004 8.47737C7.07957 8.47737 6.33338 7.69275 6.33338 6.72487Z" fill="#BF895A"/>
</svg>
