<svg width="60" height="60" viewBox="0 0 60 60" fill="none" xmlns="http://www.w3.org/2000/svg">
<circle cx="30" cy="30" r="30" fill="#BF895A"/>
<path d="M22.35 36.175L30 28.5417L37.65 36.175L40 33.825L30 23.825L20 33.825L22.35 36.175Z" fill="white"/>
</svg>
