<svg width="40" height="40" viewBox="0 0 40 40" fill="none" xmlns="http://www.w3.org/2000/svg">
<rect x="1" y="1" width="38" height="38" rx="9" stroke="white" stroke-width="2"/>
<path d="M30.9603 14.1603L20.6288 28.2289L9.85754 14.1603" stroke="white" stroke-width="2" stroke-linejoin="round"/>
</svg>
